﻿{
  "LoadExtensions": [
    //"..\\..\\..\\..\\TESTS\\Zurc.Tests.Actions\\bin\\Debug\\Zurc.Tests.Actions.dll"
  ],
  "PathSequences": [
    "C:\\SAURON_SYSTEM\\SEQUENCES"
  ],
  "Toolbox": {
    "LoadAssemblies": [
      "Dezac.Tests.Actions.dll"
    ]
  },
  "ComponentsView": {
    "LoadAssemblies": [
      "Dezac.Tests.Measure.dll",
      "Dezac.Tests.Metering.dll",
      "Dezac.Tests.Protection.dll",
      "Dezac.Tests.Reactive.dll",
      "Dezac.Tests.Renewable.dll",
      "Dezac.Tests.ThermalStations.dll",
      "Dezac.Device.Measure.dll",
      "Dezac.Device.Metering.dll",
      "Dezac.Device.Protection.dll",
      "Dezac.Device.Reactive.dll",
      "Dezac.Device.Renewable.dll",
      "Dezac.Instruments.dll"
    ]
  },
  "Editors": [
    {
      "DocType": ".seq",
      "Manager": "WinTaskRunner.Services.SequenceDocumentManager, WinTaskRunner"
    },
    {
      "DocType": ".cs",
      "Manager": "WinTaskRunner.Design.Services.SourceCodeDocumentManager, WinTaskRunner.Design"
    },
    {
      "DocType": ".cshtml",
      "Manager": "WinTaskRunner.Design.Services.SourceCodeDocumentManager, WinTaskRunner.Design"
    }
  ],
  "LoadSequence": "",
  "ImageActions": [
    {
      "key": "Actions",
      "icon": "Action"
    },
    {
      "key": "Tower",
      "icon": "Tower"
    },
    {
      "key": "GroupActions",
      "icon": "GroupAction"
    },
    {
      "key": "Tools",
      "icon": "Tools"
    },
    {
      "key": "Bluetooth",
      "icon": "Bluetooth"
    },
    {
      "key": "CamaraIDS",
      "icon": "Camara"
    },
    {
      "key": "XML",
      "icon": "Code"
    },
    {
      "key": "Database",
      "icon": "Database"
    },
    {
      "key": "Dlms",
      "icon": "Dlms"
    },
    {
      "key": "Ethernet",
      "icon": "Ethernet"
    },
    {
      "Key": "Firmware",
      "icon": "Firmware"
    },
    {
      "key": "Modbus",
      "icon": "Rs232"
    },
    {
      "key": "Cirbus",
      "icon": "Rs232"
    },
    {
      "key": "Midabus",
      "icon": "Rs232"
    },
    {
      "key": "HEX",
      "icon": "Rs232b"
    },
    {
      "key": "ASCII",
      "icon": "Rs232b"
    },
    {
      "key": "Canbus",
      "icon": "Rs232b"
    },
    {
      "key": "Comunications",
      "icon": "Comunications"
    },
    {
      "key": "Router",
      "icon": "Router"
    },
    {
      "key": "Switch",
      "icon": "Router"
    },
    {
      "key": "SSH",
      "icon": "Terminal"
    },
    {
      "key": "SCP",
      "icon": "Terminal"
    },
    {
      "key": "Telnet",
      "icon": "Terminal"
    },
    {
      "key": "DezacTest",
      "icon": "DezacTest"
    },
    {
      "key": "Developer",
      "icon": "Code"
    },
    {
      "key": "StadisticMeasure",
      "icon": "BarChart"
    },
    {
      "key": "Math",
      "icon": "Math"
    },
    {
      "key": "Message",
      "icon": "Message"
    },
    {
      "key": "Variables",
      "icon": "Variable"
    },
    {
      "key": "Wait",
      "icon": "Wait"
    },
    {
      "key": "Context",
      "icon": "Kernel"
    },
    {
      "key": "Oracle",
      "icon": "Database"
    },
    {
      "key": "Validation",
      "icon": "Validation"
    },
    {
      "key": "Laser",
      "icon": "Laser"
    },
    {
      "key": "Trazabilidad",
      "icon": "Trazabilidad"
    },
    {
      "key": "Labels",
      "icon": "Barcode"
    },
    {
      "key": "Vision",
      "icon": "eye"
    },
    {
      "key": "AOI",
      "icon": "Halcon"
    },
    {
      "key": "Halcon",
      "icon": "Halcon"
    },
    {
      "key": "Devices",
      "icon": "Devices"
    },
    {
      "key": "Instruments",
      "icon": "Insruments"
    },
    {
      "key": "FTP",
      "icon": "Ftp"
    },
    {
      "key": "TFTP",
      "icon": "Ftp"
    },
    {
      "key": "PowerSource",
      "icon": "PowerSource"
    },
    {
      "key": "Measure",
      "icon": "LineChart"
    },
    {
      "key": "Metering",
      "icon": "Metering"
    },
    {
      "key": "Protection",
      "icon": "protection"
    },
    {
      "key": "Renewable",
      "icon": "renowable"
    },
    {
      "key": "Reactive",
      "icon": "condensador"
    },
    {
      "key": "Sequence Snippets",
      "icon": "Sequence"
    },
    {
      "key": "Device Generated",
      "icon": "Cube"
    },
    {
      "key": "In/Out",
      "icon": "input"
    },
    {
      "key": "type",
      "icon": "type"
    },
    {
      "key": "method",
      "icon": "method"
    },
    {
      "key": "Add",
      "icon": "AddVariable"
    },
    {
      "key": "Format",
      "icon": "format"
    },
    {
      "key": "Validate",
      "icon": "Validation"
    },
    {
      "key": "SaveResults",
      "icon": "SaveResults"
    },
    {
      "key": "SerialNumber",
      "icon": "Barcode"
    },
    {
      "key": "Parameters",
      "icon": "DatabaseParameters"
    },
    {
      "key": "FilesPGI",
      "icon": "DatabaseFiles"
    },
    {
      "key": "Files",
      "icon": "report"
    },
    {
      "key": "Drive",
      "icon": "removable-usb"
    },
    {
      "key": "Http",
      "icon": "HTTP"
    },
    {
      "key": "DHCP",
      "icon": "DHCP"
    },
    {
      "key": "ZurcTest",
      "icon": "DezacTest"
    },
    {
      "key": "Query",
      "icon": "AddVariable"
    }
  ]
}
